[gd_scene load_steps=3 format=2]

[ext_resource path="res://TileMapWorld1.tscn" type="PackedScene" id=1]
[ext_resource path="res://entities/player/Player.tscn" type="PackedScene" id=2]

[node name="MainWorld2" type="Node"]

[node name="MainTileMap" parent="." instance=ExtResource( 1 )]

[node name="Player" parent="." instance=ExtResource( 2 )]
position = Vector2( 32.721, 465.927 )
scale = Vector2( 0.25, 0.25 )
