[gd_scene load_steps=9 format=2]

[ext_resource path="res://world1.gd" type="Script" id=1]
[ext_resource path="res://assets/kenney_simplifiedplatformer (1)/Tilesheet/platformPack_tilesheet.png" type="Texture" id=2]

[sub_resource type="ConvexPolygonShape2D" id=1]
points = PoolVector2Array( 0, 0, 64, 0, 64, 64, 0, 64 )

[sub_resource type="ConvexPolygonShape2D" id=2]
points = PoolVector2Array( 0, 0, 64, 0, 64, 64, 0, 64 )

[sub_resource type="ConvexPolygonShape2D" id=3]
points = PoolVector2Array( 0, 0, 64, 0, 64, 64, 0, 64 )

[sub_resource type="ConvexPolygonShape2D" id=4]
points = PoolVector2Array( 0, 0, 64, 0, 64, 64, 0, 64 )

[sub_resource type="TileSet" id=5]
0/name = "platformPack_tilesheet.png 0"
0/texture = ExtResource( 2 )
0/tex_offset = Vector2( 0, 0 )
0/modulate = Color( 1, 1, 1, 1 )
0/region = Rect2( 0, 0, 64, 64 )
0/tile_mode = 0
0/occluder_offset = Vector2( 0, 0 )
0/navigation_offset = Vector2( 0, 0 )
0/shapes = [ {
"autotile_coord": Vector2( 0, 0 ),
"one_way": false,
"one_way_margin": 1.0,
"shape": SubResource( 1 ),
"shape_transform": Transform2D( 1, 0, 0, 1, 0, 0 )
} ]
0/z_index = 0
1/name = "platformPack_tilesheet.png 1"
1/texture = ExtResource( 2 )
1/tex_offset = Vector2( 0, 0 )
1/modulate = Color( 1, 1, 1, 1 )
1/region = Rect2( 192, 0, 64, 64 )
1/tile_mode = 0
1/occluder_offset = Vector2( 0, 0 )
1/navigation_offset = Vector2( 0, 0 )
1/shapes = [ {
"autotile_coord": Vector2( 0, 0 ),
"one_way": false,
"one_way_margin": 1.0,
"shape": SubResource( 2 ),
"shape_transform": Transform2D( 1, 0, 0, 1, 0, 0 )
} ]
1/z_index = 0
2/name = "platformPack_tilesheet.png 2"
2/texture = ExtResource( 2 )
2/tex_offset = Vector2( 0, 0 )
2/modulate = Color( 1, 1, 1, 1 )
2/region = Rect2( 0, 64, 64, 64 )
2/tile_mode = 0
2/occluder_offset = Vector2( 0, 0 )
2/navigation_offset = Vector2( 0, 0 )
2/shapes = [ {
"autotile_coord": Vector2( 0, 0 ),
"one_way": false,
"one_way_margin": 1.0,
"shape": SubResource( 3 ),
"shape_transform": Transform2D( 1, 0, 0, 1, 0, 0 )
} ]
2/z_index = 0
3/name = "platformPack_tilesheet.png 3"
3/texture = ExtResource( 2 )
3/tex_offset = Vector2( 0, 0 )
3/modulate = Color( 1, 1, 1, 1 )
3/region = Rect2( 192, 64, 64, 64 )
3/tile_mode = 0
3/occluder_offset = Vector2( 0, 0 )
3/navigation_offset = Vector2( 0, 0 )
3/shapes = [ {
"autotile_coord": Vector2( 0, 0 ),
"one_way": false,
"one_way_margin": 1.0,
"shape": SubResource( 4 ),
"shape_transform": Transform2D( 1, 0, 0, 1, 0, 0 )
} ]
3/z_index = 0
4/name = "platformPack_tilesheet.png 4"
4/texture = ExtResource( 2 )
4/tex_offset = Vector2( 0, 0 )
4/modulate = Color( 1, 1, 1, 1 )
4/region = Rect2( 256, 0, 64, 64 )
4/tile_mode = 0
4/occluder_offset = Vector2( 0, 0 )
4/navigation_offset = Vector2( 0, 0 )
4/shapes = [  ]
4/z_index = 0
5/name = "platformPack_tilesheet.png 5"
5/texture = ExtResource( 2 )
5/tex_offset = Vector2( 0, 0 )
5/modulate = Color( 1, 1, 1, 1 )
5/region = Rect2( 256, 64, 64, 64 )
5/tile_mode = 0
5/occluder_offset = Vector2( 0, 0 )
5/navigation_offset = Vector2( 0, 0 )
5/shapes = [  ]
5/z_index = 0
6/name = "platformPack_tilesheet.png 6"
6/texture = ExtResource( 2 )
6/tex_offset = Vector2( 0, 0 )
6/modulate = Color( 1, 1, 1, 1 )
6/region = Rect2( 448, 256, 64, 64 )
6/tile_mode = 0
6/occluder_offset = Vector2( 0, 0 )
6/navigation_offset = Vector2( 0, 0 )
6/shapes = [  ]
6/z_index = 0

[sub_resource type="RectangleShape2D" id=6]
extents = Vector2( 4135.35, 82.0065 )

[node name="Node" type="Node"]
script = ExtResource( 1 )

[node name="TileMap" type="TileMap" parent="."]
tile_set = SubResource( 5 )
format = 1
tile_data = PoolIntArray( -131022, 1, 0, -131021, 1, 0, 65535, 1, 0, 131071, 1, 0, 196607, 1, 0, 131137, 0, 0, 131138, 0, 0, 131139, 0, 0, 131140, 0, 0, 131141, 0, 0, 131142, 0, 0, 131143, 0, 0, 131144, 0, 0, 131145, 0, 0, 131146, 0, 0, 131147, 0, 0, 131148, 0, 0, 131149, 0, 0, 262143, 1, 0, 196651, 2, 0, 196652, 2, 0, 196653, 2, 0, 196654, 2, 0, 196655, 2, 0, 196671, 0, 0, 196672, 0, 0, 196673, 1, 0, 196674, 1, 0, 196675, 1, 0, 196676, 1, 0, 196677, 1, 0, 196678, 1, 0, 196679, 1, 0, 196680, 1, 0, 196681, 1, 0, 196682, 1, 0, 196683, 1, 0, 196684, 1, 0, 196685, 1, 0, 327679, 1, 0, 262180, 2, 0, 262181, 2, 0, 262182, 2, 0, 262183, 2, 0, 262205, 0, 0, 262206, 0, 0, 262207, 1, 0, 262208, 1, 0, 262209, 1, 0, 262210, 1, 0, 262211, 1, 0, 262212, 1, 0, 262213, 1, 0, 262214, 1, 0, 262215, 1, 0, 262216, 1, 0, 262217, 1, 0, 262218, 1, 0, 262219, 1, 0, 262220, 1, 0, 262221, 1, 0, 393215, 1, 0, 327708, 2, 0, 327709, 2, 0, 327710, 2, 0, 327711, 2, 0, 327741, 1, 0, 327742, 1, 0, 327743, 1, 0, 327744, 1, 0, 327745, 1, 0, 327746, 1, 0, 327747, 1, 0, 327748, 1, 0, 327749, 1, 0, 327750, 1, 0, 327751, 1, 0, 327752, 1, 0, 327753, 1, 0, 327754, 1, 0, 327755, 1, 0, 327756, 1, 0, 327757, 1, 0, 327791, 6, 0, 458751, 1, 0, 393235, 0, 0, 393236, 0, 0, 393237, 0, 0, 393238, 0, 0, 393239, 0, 0, 393240, 0, 0, 393241, 0, 0, 393275, 0, 0, 393276, 0, 0, 393277, 1, 0, 393278, 1, 0, 393279, 1, 0, 393280, 1, 0, 393281, 1, 0, 393282, 1, 0, 393283, 1, 0, 393284, 1, 0, 393285, 1, 0, 393286, 1, 0, 393287, 1, 0, 393288, 1, 0, 393289, 1, 0, 393290, 1, 0, 393291, 1, 0, 393292, 1, 0, 393293, 1, 0, 393324, 2, 0, 393325, 2, 0, 393326, 2, 0, 393327, 2, 0, 393328, 2, 0, 393329, 2, 0, 393330, 2, 0, 393331, 2, 0, 393332, 2, 0, 393333, 2, 0, 393334, 2, 0, 393335, 2, 0, 393336, 2, 0, 393337, 2, 0, 393338, 2, 0, 524287, 1, 0, 458769, 0, 0, 458770, 0, 0, 458771, 1, 0, 458772, 1, 0, 458773, 1, 0, 458774, 1, 0, 458775, 1, 0, 458776, 1, 0, 458777, 1, 0, 458811, 1, 0, 458812, 1, 0, 458813, 1, 0, 458814, 1, 0, 458815, 1, 0, 458816, 1, 0, 458817, 1, 0, 458818, 1, 0, 458819, 1, 0, 458820, 1, 0, 458821, 1, 0, 458822, 1, 0, 458823, 1, 0, 458824, 1, 0, 458825, 1, 0, 458826, 1, 0, 458827, 1, 0, 458828, 1, 0, 458829, 1, 0, 458850, 2, 0, 458851, 2, 0, 458852, 2, 0, 458853, 2, 0, 458860, 3, 0, 458861, 3, 0, 458862, 3, 0, 458863, 3, 0, 458864, 3, 0, 458865, 3, 0, 458866, 3, 0, 458867, 3, 0, 458868, 3, 0, 458869, 3, 0, 458870, 3, 0, 458871, 3, 0, 458872, 3, 0, 458873, 3, 0, 458874, 3, 0, 458875, 3, 0, 524288, 0, 0, 524289, 0, 0, 524290, 0, 0, 524291, 0, 0, 524292, 0, 0, 524293, 0, 0, 524294, 0, 0, 524295, 0, 0, 524296, 0, 0, 524297, 0, 0, 524298, 0, 0, 524299, 0, 0, 524300, 0, 0, 524301, 0, 0, 524302, 0, 0, 524303, 0, 0, 524304, 0, 0, 524305, 1, 0, 524306, 1, 0, 524307, 1, 0, 524308, 1, 0, 524309, 1, 0, 524310, 1, 0, 524311, 1, 0, 524312, 1, 0, 524313, 1, 0, 524314, 4, 0, 524315, 4, 0, 524316, 4, 0, 524317, 4, 0, 524318, 4, 0, 524319, 4, 0, 524320, 4, 0, 524321, 4, 0, 524322, 4, 0, 524323, 4, 0, 524324, 4, 0, 524325, 4, 0, 524326, 4, 0, 524327, 4, 0, 524328, 4, 0, 524329, 4, 0, 524330, 4, 0, 524331, 4, 0, 524332, 4, 0, 524333, 4, 0, 524334, 4, 0, 524335, 4, 0, 524336, 4, 0, 524337, 4, 0, 524338, 4, 0, 524339, 0, 0, 524340, 0, 0, 524341, 0, 0, 524342, 0, 0, 524343, 0, 0, 524344, 0, 0, 524345, 0, 0, 524346, 0, 0, 524347, 1, 0, 524348, 1, 0, 524349, 1, 0, 524350, 1, 0, 524351, 1, 0, 524352, 1, 0, 524353, 1, 0, 524354, 1, 0, 524355, 1, 0, 524356, 1, 0, 524357, 1, 0, 524358, 1, 0, 524359, 1, 0, 524360, 1, 0, 524361, 1, 0, 524362, 1, 0, 524363, 1, 0, 524364, 1, 0, 524365, 1, 0, 524378, 2, 0, 524379, 2, 0, 524380, 2, 0, 524386, 3, 0, 524387, 3, 0, 524388, 3, 0, 524389, 3, 0, 524396, 3, 0, 524397, 3, 0, 524398, 3, 0, 524399, 3, 0, 524400, 3, 0, 524401, 3, 0, 524402, 3, 0, 524403, 3, 0, 524404, 3, 0, 524405, 3, 0, 524406, 3, 0, 524407, 3, 0, 524408, 3, 0, 524409, 3, 0, 524410, 3, 0, 524411, 3, 0, 589824, 1, 0, 589825, 1, 0, 589826, 1, 0, 589827, 1, 0, 589828, 1, 0, 589829, 1, 0, 589830, 1, 0, 589831, 1, 0, 589832, 1, 0, 589833, 1, 0, 589834, 1, 0, 589835, 1, 0, 589836, 1, 0, 589837, 1, 0, 589838, 1, 0, 589839, 1, 0, 589840, 1, 0, 589841, 1, 0, 589842, 1, 0, 589843, 1, 0, 589844, 1, 0, 589845, 1, 0, 589846, 1, 0, 589847, 1, 0, 589848, 1, 0, 589849, 1, 0, 589850, 5, 0, 589851, 5, 0, 589852, 5, 0, 589853, 5, 0, 589854, 5, 0, 589855, 5, 0, 589856, 5, 0, 589857, 5, 0, 589858, 5, 0, 589859, 5, 0, 589860, 5, 0, 589861, 5, 0, 589862, 5, 0, 589863, 5, 0, 589864, 5, 0, 589865, 5, 0, 589866, 5, 0, 589867, 5, 0, 589868, 5, 0, 589869, 5, 0, 589870, 5, 0, 589871, 5, 0, 589872, 5, 0, 589873, 5, 0, 589874, 5, 0, 589875, 1, 0, 589876, 1, 0, 589877, 1, 0, 589878, 1, 0, 589879, 1, 0, 589880, 1, 0, 589881, 1, 0, 589882, 1, 0, 589883, 1, 0, 589884, 1, 0, 589885, 1, 0, 589886, 1, 0, 589887, 1, 0, 589888, 1, 0, 589889, 1, 0, 589890, 1, 0, 589891, 1, 0, 589892, 1, 0, 589893, 1, 0, 589894, 1, 0, 589895, 1, 0, 589896, 1, 0, 589897, 1, 0, 589898, 1, 0, 589899, 1, 0, 589900, 1, 0, 589901, 1, 0, 589902, 4, 0, 589903, 4, 0, 589904, 4, 0, 589905, 4, 0, 589906, 4, 0, 589907, 4, 0, 589908, 4, 0, 589909, 4, 0, 589910, 4, 0, 589911, 2, 0, 589912, 2, 0, 589913, 2, 0, 589914, 3, 0, 589915, 3, 0, 589916, 3, 0, 589917, 4, 0, 589918, 4, 0, 589919, 4, 0, 589920, 4, 0, 589921, 4, 0, 589922, 3, 0, 589923, 3, 0, 589924, 3, 0, 589925, 3, 0, 589926, 4, 0, 589927, 4, 0, 589928, 4, 0, 589929, 4, 0, 589930, 4, 0, 589931, 4, 0, 589932, 3, 0, 589933, 3, 0, 589934, 3, 0, 589935, 3, 0, 589936, 3, 0, 589937, 3, 0, 589938, 3, 0, 589939, 3, 0, 589940, 3, 0, 589941, 3, 0, 589942, 3, 0, 589943, 3, 0, 589944, 3, 0, 589945, 3, 0, 589946, 3, 0, 655371, 1, 0, 655372, 1, 0, 655373, 1, 0, 655374, 1, 0, 655385, 1, 0, 655422, 1, 0, 655423, 1, 0, 655424, 1, 0, 655425, 1, 0, 655426, 1, 0, 655427, 1, 0, 655428, 1, 0, 655429, 1, 0, 655430, 1, 0, 655431, 1, 0, 655432, 1, 0, 655433, 1, 0, 655434, 1, 0, 655435, 1, 0, 655436, 1, 0, 655437, 1, 0 )

[node name="Area2D" type="Area2D" parent="."]
position = Vector2( 3708.36, 800.535 )

[node name="CollisionShape2D" type="CollisionShape2D" parent="Area2D"]
shape = SubResource( 6 )
[connection signal="body_entered" from="Area2D" to="." method="_on_Area2D_body_entered"]
