[gd_scene load_steps=5 format=2]

[ext_resource path="res://entities/Projectile/Projectile.tscn" type="PackedScene" id=1]
[ext_resource path="res://entities/Projectile/ParrotFeather.gd" type="Script" id=2]
[ext_resource path="res://assets/parrot/ParrotFeather.png" type="Texture" id=3]

[sub_resource type="CapsuleShape2D" id=1]
radius = 14.0551
height = 41.9101

[node name="ParrotFeather" instance=ExtResource( 1 )]
rotation = 0.785398
collision_layer = 128
script = ExtResource( 2 )
speed = 500
damage = 10
lifetime = 0.3

[node name="Sprite" parent="." index="0"]
position = Vector2( -0.241549, -0.124633 )
scale = Vector2( 0.0959932, 0.0869682 )
texture = ExtResource( 3 )

[node name="CollisionShape2D" parent="." index="1"]
position = Vector2( -0.745356, 1.11803 )
rotation = 0.802851
shape = SubResource( 1 )
