[gd_scene load_steps=4 format=2]

[ext_resource path="res://water/05.with_shadow/water_with_shadow_material.tres" type="Material" id=1]
[ext_resource path="res://water/textures/water_diffuse.png" type="Texture" id=2]
[ext_resource path="res://water/water.gd" type="Script" id=3]

[node name="Water" type="Sprite"]
material = ExtResource( 1 )
position = Vector2( 3.83508, 331.725 )
scale = Vector2( 3.89241, 1.03353 )
texture = ExtResource( 2 )
centered = false
script = ExtResource( 3 )
[connection signal="item_rect_changed" from="." to="." method="_on_item_rect_changed"]
