[gd_scene load_steps=6 format=2]

[ext_resource path="res://assets/music/Gargoyles_Numb_End_-_01_-_Arp_220.wav" type="AudioStream" id=1]
[ext_resource path="res://assets/music/Mid-Air_Machine_-_At_Least_It_Is.wav" type="AudioStream" id=2]
[ext_resource path="res://assets/music/Jungle Groove.wav" type="AudioStream" id=3]
[ext_resource path="res://HUD/Level2Music.gd" type="Script" id=4]
[ext_resource path="res://assets/music/Donkey Kong 64 - Army Dillo (Jungle Boss).wav" type="AudioStream" id=5]

[node name="Node" type="Node"]

[node name="Menu" type="AudioStreamPlayer" parent="."]
stream = ExtResource( 1 )

[node name="Level1" type="AudioStreamPlayer" parent="."]
stream = ExtResource( 2 )

[node name="Level2" type="AudioStreamPlayer" parent="."]
stream = ExtResource( 3 )
script = ExtResource( 4 )

[node name="Level3" type="AudioStreamPlayer" parent="."]
stream = ExtResource( 5 )
[connection signal="finished" from="Level2" to="Level2" method="_on_Level2_finished"]
